{
    "host": [
        "172.17.28.39",
        "172.17.28.43",
        "172.17.28.66"
    ],
    "myqnapcloudHost": "https://amol.myqnapcloud.com/",
    "port": 8883,
    "clientId": "devices1",
    "username": "f49d2d40-9781-491b-975b-d9591d955466",
    "password": "r:4e58ca02feb401c5ddf478e32e81f806",
    "resources": [
        {
            "resourcename": "devices1",
            "resourceid": "devices1",
            "resourcetypename": "Temperature",
            "datatype": "Float",
            "unit": "centigrate",
            "description": "devices1",
            "topic": "qiot/things/admin/devices$DEVICEID/devices1"
        }
    ],
    "caCert": "/v1/media/ca-crt.pem",
    "clientCert": "/v1/media/8995472016-12-14_01-54-46/8995472016-12-14_01-54-46_certificate.pem",
    "privateCert": "/v1/media/8995472016-12-14_01-54-46/8995472016-12-14_01-54-46_privatekey.pem"
}